{
  "coverage": "48.38%",
  "expectCount": 124,
  "actualCount": 60,
  "files": {
    "src/api/etc.service.ts": {
      "expectCount": 7,
      "actualCount": 4,
      "undocumentLines": [
        1,
        17,
        18
      ]
    },
    "src/api/media.service.ts": {
      "expectCount": 7,
      "actualCount": 4,
      "undocumentLines": [
        1,
        17,
        18
      ]
    },
    "src/api/pokemon.service.ts": {
      "expectCount": 9,
      "actualCount": 6,
      "undocumentLines": [
        1,
        18,
        19
      ]
    },
    "src/api/social.service.ts": {
      "expectCount": 9,
      "actualCount": 6,
      "undocumentLines": [
        1,
        18,
        19
      ]
    },
    "src/app/app-routing.module.ts": {
      "expectCount": 3,
      "actualCount": 1,
      "undocumentLines": [
        1,
        9
      ]
    },
    "src/app/app.component.ts": {
      "expectCount": 7,
      "actualCount": 2,
      "undocumentLines": [
        1,
        15,
        16,
        17,
        18
      ]
    },
    "src/app/app.module.ts": {
      "expectCount": 2,
      "actualCount": 1,
      "undocumentLines": [
        1
      ]
    },
    "src/app/components/pokemon/models/pokemon.ts": {
      "expectCount": 1,
      "actualCount": 1,
      "undocumentLines": []
    },
    "src/app/components/pokemon/pokemon.component.ts": {
      "expectCount": 8,
      "actualCount": 3,
      "undocumentLines": [
        1,
        15,
        16,
        17,
        38
      ]
    },
    "src/app/components/pokemon-list/models/pokemon.ts": {
      "expectCount": 1,
      "actualCount": 1,
      "undocumentLines": []
    },
    "src/app/components/pokemon-list/pokemon-list.component.ts": {
      "expectCount": 10,
      "actualCount": 5,
      "undocumentLines": [
        1,
        16,
        17,
        18,
        59
      ]
    },
    "src/app/components/post-list/post-list.component.ts": {
      "expectCount": 8,
      "actualCount": 3,
      "undocumentLines": [
        1,
        15,
        16,
        17,
        27
      ]
    },
    "src/app/components/user-list/user-list.component.ts": {
      "expectCount": 9,
      "actualCount": 4,
      "undocumentLines": [
        1,
        16,
        17,
        18,
        36
      ]
    },
    "src/app/tab1/tab1.module.ts": {
      "expectCount": 2,
      "actualCount": 1,
      "undocumentLines": [
        1
      ]
    },
    "src/app/tab1/tab1.page.ts": {
      "expectCount": 3,
      "actualCount": 1,
      "undocumentLines": [
        1,
        15
      ]
    },
    "src/app/tab2/tab2.module.ts": {
      "expectCount": 2,
      "actualCount": 1,
      "undocumentLines": [
        1
      ]
    },
    "src/app/tab2/tab2.page.ts": {
      "expectCount": 3,
      "actualCount": 1,
      "undocumentLines": [
        1,
        15
      ]
    },
    "src/app/tab3/tab3.module.ts": {
      "expectCount": 2,
      "actualCount": 1,
      "undocumentLines": [
        1
      ]
    },
    "src/app/tab3/tab3.page.ts": {
      "expectCount": 3,
      "actualCount": 1,
      "undocumentLines": [
        1,
        15
      ]
    },
    "src/app/tab4/tab4.module.ts": {
      "expectCount": 2,
      "actualCount": 1,
      "undocumentLines": [
        1
      ]
    },
    "src/app/tab4/tab4.page.ts": {
      "expectCount": 9,
      "actualCount": 5,
      "undocumentLines": [
        1,
        15,
        16,
        17
      ]
    },
    "src/app/tabs/tabs.module.ts": {
      "expectCount": 2,
      "actualCount": 1,
      "undocumentLines": [
        1
      ]
    },
    "src/app/tabs/tabs.page.ts": {
      "expectCount": 3,
      "actualCount": 1,
      "undocumentLines": [
        1,
        15
      ]
    },
    "src/app/tabs/tabs.router.module.ts": {
      "expectCount": 3,
      "actualCount": 1,
      "undocumentLines": [
        1,
        10
      ]
    },
    "src/environments/environment.prod.ts": {
      "expectCount": 1,
      "actualCount": 0,
      "undocumentLines": [
        1
      ]
    },
    "src/environments/environment.ts": {
      "expectCount": 1,
      "actualCount": 0,
      "undocumentLines": [
        4
      ]
    },
    "src/karma.conf.js": {
      "expectCount": 1,
      "actualCount": 0,
      "undocumentLines": [
        4
      ]
    },
    "src/models/apiResult.ts": {
      "expectCount": 1,
      "actualCount": 1,
      "undocumentLines": []
    },
    "src/models/pokemon.ts": {
      "expectCount": 1,
      "actualCount": 1,
      "undocumentLines": []
    },
    "src/models/post.ts": {
      "expectCount": 1,
      "actualCount": 1,
      "undocumentLines": []
    },
    "src/models/user.ts": {
      "expectCount": 1,
      "actualCount": 1,
      "undocumentLines": []
    },
    "src/test.ts": {
      "expectCount": 1,
      "actualCount": 0,
      "undocumentLines": [
        8
      ]
    },
    "src/utils/general.js": {
      "expectCount": 1,
      "actualCount": 0,
      "undocumentLines": [
        1
      ]
    }
  }
}